{
    "boardingPasses":{
        "barCodeType":null,
        "items":[
                 {
                 "agentId":"WEBANONYMOUS",
                 "barCode":{
                 "barcodeData":"",
                 "barcodeType":"Default",
                 "hmac":"B5AXm0ERuKYlkQf_OuTcs1N59SUYfcEfTYMsmTAFt6s1",
                 "payload":"",
                 "salt":"gIheVC8WOz3VSmhz6KjNVLcV8YJI1a0Mk7z-IZzHTgg1",
                 "sequenceNumber":0
                 },
                 "baseFare":219,
                 "contactPhone":"321456",
                 "currencyCode":"SAR",
                 "currentTime":"2015-12-02T18:42:11.6486128Z",
                 "customerNumber":"",
                 "dicountedFare":219,
                 "dob":"1976-11-24T00:00:00",
                 "fareBasisCode":"EFARE",
                 "fareClass":"E",
                 "gender":"Male",
                 "guestValueLevelCode":" ",
                 "guestValueLevelName":"",
                 "iataid":"999",
                 "infantDob":"9999-12-31T00:00:00Z",
                 "infantGender":"Male",
                 "infantName":{
                 "first":"",
                 "last":"",
                 "middle":"",
                 "suffix":"",
                 "title":""
                 },
                 "isoInfantName":{
                 "first":"",
                 "last":"",
                 "middle":"",
                 "suffix":"",
                 "title":""
                 },
                 "isoName":{
                 "first":"AHMAD",
                 "last":"ALMIHAIDI",
                 "middle":"",
                 "suffix":"",
                 "title":"MR"
                 },
                 "name":{
                 "first":"Ahmad",
                 "last":"Almihaidi",
                 "middle":"",
                 "suffix":"",
                 "title":"MR"
                 },
                 "passengerTypeTag":"REGULAR",
                 "passportCountry":"AU",
                 "passportExpiryDate":"2015-11-26T00:00:00",
                 "passportNumber":"76574355",
                 "paymentDate":"2015-12-02T13:58:19.21",
                 "paymentDescription":"MC",
                 "programLevelShortName":"",
                 "programName":"",
                 "programNumber":"",
                 "receiptNumber":"025565554",
                 "recordLocator":"WYNUJD",
                 "segments":[
                             {
                             "arrivalStationName":"RIYADH",
                             "arrivalTime":"2015-12-03T02:00:00",
                             "barcodes":[
                                         {
                                         "barcodeData":"M1ALMIHAIDI/AHMAD WYNUJD GIZRUHXY 0289 337Y006C0002 147\u003e1181 5336BXY 000000000000029999007657435500 ",
                                         "barcodeType":"S2D",
                                         "hmac":"Awtku7trDF6aIsz2Ii_RwdzLQY71dFuV68qYbw3Iuq81",
                                         "payload":"TTFBTE1JSEFJREkvQUhNQUQgICAgICBXWU5VSkQgR0laUlVIWFkgMDI4OSAzMzdZMDA2QzAwMDIgMTQ3PjExODEgIDUzMzZCWFkgMDAwMDAwMDAwMDAwMDI5OTk5MDA3NjU3NDM1NTAwICAgICAgICAgICAgICAgICAgICAgICAgICA:",
                                         "salt":"oJuiySt7Ilbcs3qlbYyTKzMMxD-22FE26Gj89xBShsc1",
                                         "sequenceNumber":2
                                         }
                                         ],
                             "boardingTime":"2015-12-02T23:45:00",
                             "bookingStatus":"HK",
                             "cabinOfService":"Y",
                             "classOfService":"E",
                             "connectionInd":false,
                             "departureGate":"",
                             "departureStationName":"GIZAN",
                             "departureTime":"2015-12-03T00:15:00",
                             "fareClassName":"Class E",
                             "infantInd":false,
                             "infantTicketNumber":"",
                             "international":false,
                             "inventoryLegKey":{
                             "arrivalStation":"RUH",
                             "carrierCode":"XY",
                             "departureDate":"2015-12-03T00:00:00",
                             "departureStation":"GIZ",
                             "flightNumber":" 289",
                             "opSuffix":" "
                             },
                             "legs":[
                                     {
                                     "aircraftChange":false,
                                     "aircraftType":"320",
                                     "aircraftTypeSuffix":"BC",
                                     "bags":[
                                     ],
                                     "boardingSequence":2,
                                     "boardingZone":2,
                                     "bppr":"",
                                     "codeShareIndicator":" ",
                                     "inventoryLegKey":{
                                     "arrivalStation":"RUH",
                                     "carrierCode":"XY",
                                     "departureDate":"2015-12-03T00:00:00",
                                     "departureStation":"GIZ",
                                     "flightNumber":" 289",
                                     "opSuffix":" "
                                     },
                                     "legNumber":1,
                                     "liftStatus":"CheckedIn",
                                     "oaBoardingZone":"",
                                     "operatedByText":"",
                                     "operatingCarrier":"",
                                     "operatingCarrierName":"",
                                     "operatingFlightNumber":" ",
                                     "operatingOpSuffix":" ",
                                     "seatColumn":"C",
                                     "seatRow":6,
                                     "ssrs":[
                                             {
                                             "legNumber":0,
                                             "note":"",
                                             "passengerId":25565554,
                                             "segmentId":37752991,
                                             "ssrCode":"X20",
                                             "ssrDetail":"",
                                             "ssrNumber":0
                                             }
                                             ],
                                     "sta":"2015-12-03T02:00:00",
                                     "std":"2015-12-03T00:15:00",
                                     "subjectToGovernmentApproval":false
                                     }
                                     ],
                             "productClassName":"E Economy",
                             "programLevelShortName":"",
                             "programName":"",
                             "programNumber":"",
                             "segmentType":"",
                             "ticketIndicator":"",
                             "ticketNumber":"",
                             "verifiedTravelDocs":"",
                             "xRefCarrierCode":"",
                             "xRefCarrierName":"",
                             "xRefClassOfService":"",
                             "xRefFlightNumber":"",
                             "xRefOpSuffix":""
                             }
                             ],
                 "selecteeString":"",
                 "stationId":"WWW",
                 "totalCost":239,
                 "totalFare":239,
                 "totalTax":0
                 }
                 ],
        "passengerNumber":null,
        "pnr":"WYNUJD",
        "sellKey":null
    }
}