{
    "wciBooking":{
        "journeys":[
                    {
                    "arrivalDate":"2015-11-16T07:05:00",
                    "arrivalStation":"AUH",
                    "departureDate":"2015-11-16T04:30:00",
                    "departureStation":"RUH",
                    "segments":[
                                {
                                "arrivalDate":"2015-11-16T07:05:00",
                                "arrivalStation":"AUH",
                                "departureDate":"2015-11-16T04:30:00",
                                "departureStation":"RUH",
                                "duration":"01:35:00",
                                "flightDesignator":"XY3316",
                                "passengers":[
                                              {
                                              "firstName":"a",
                                              "isCheckedIn":false,
                                              "lastName":"a",
                                              "passengerNumber":0,
                                              "unitDesignator":null
                                              }
                                              ]
                                }
                                ]
                    },
                    {
                    "arrivalDate":"2015-11-19T03:10:00",
                    "arrivalStation":"RUH",
                    "departureDate":"2015-11-19T02:10:00",
                    "departureStation":"AUH",
                    "segments":[
                                {
                                "arrivalDate":"2015-11-19T03:10:00",
                                "arrivalStation":"RUH",
                                "departureDate":"2015-11-19T02:10:00",
                                "departureStation":"AUH",
                                "duration":"02:00:00",
                                "flightDesignator":"XY3315",
                                "passengers":[
                                              {
                                              "firstName":"a",
                                              "isCheckedIn":false,
                                              "lastName":"a",
                                              "passengerNumber":0,
                                              "unitDesignator":null
                                              },
                                              {
                                              "firstName":"b",
                                              "isCheckedIn":false,
                                              "lastName":"b",
                                              "passengerNumber":1,
                                              "unitDesignator":""
                                              },
                                              {
                                              "firstName":"c",
                                              "isCheckedIn":false,
                                              "lastName":"c",
                                              "passengerNumber":2,
                                              "unitDesignator":null
                                              }
                                              ]
                                }
                                ]
                    }
                    ]
    }
}